…
Can we estimate the population proportion of Snapchat or Instagram users in 2016?

Create a new variable, snap_insta that is Yes if the respondent reported using any of Snapchat (snapchat) or Instagram (instagrm), and No if not. If the recorded value was NA for both of these questions, the value in your new variable should also be NA.

gss_snap_insta <- gss %>% 
mutate(snap_insta = case_when( 
      snapchat == "Yes" ~ "Yes", 
      instagrm == "Yes" ~ "Yes", 
      snapchat == "No" ~ "No", 
      instagrm == "No" ~ "No"
      )) 
gss_snap_insta

## # A tibble: 2,867 × 8
##    emailmin emailhr snapchat instagrm twitter sex    degree         snap_insta
##    <chr>    <chr>   <chr>    <chr>    <chr>   <chr>  <chr>          <chr>     
##  1 0        12      NA       NA       NA      Male   Bachelor       <NA>      
##  2 30       0       No       No       No      Male   High school    No        
##  3 NA       NA      No       No       No      Male   Bachelor       No        
##  4 10       0       NA       NA       NA      Female High school    <NA>      
##  5 NA       NA      Yes      Yes      No      Female Graduate       Yes       
##  6 0        2       No       Yes      No      Female Junior college Yes       
##  7 0        40      NA       NA       NA      Male   High school    <NA>      
##  8 NA       NA      Yes      Yes      No      Female High school    Yes       
##  9 0        0       NA       NA       NA      Male   High school    <NA>      
## 10 NA       NA      No       No       No      Male   Junior college No        
## # … with 2,857 more rows
…
Twitter, by education level

Can we estimate the population proportion of Twitter users by education level in 2016?.

There are 5 education levels in variable degree which, in ascending order of years of education, are Lt high school, High School, Junior college, Bachelor, Graduate.

Turn degree from a character variable into a factor variable. Make sure the order is the correct one and that levels are not sorted alphabetically which is what R by default does.

gss_factor <- gss%>%
  mutate(degree = as.factor(degree))%>%
  arrange(match(degree, c("Lt high school", "High School", "Junior College", "Bachelor", "Graduate")), desc(degree)) # Manually specify order using arrange and match
gss_factor

## # A tibble: 2,867 × 7
##    emailmin emailhr snapchat instagrm twitter sex    degree        
##    <chr>    <chr>   <chr>    <chr>    <chr>   <chr>  <fct>         
##  1 30       0       No       No       No      Male   Lt high school
##  2 0        1       NA       NA       NA      Female Lt high school
##  3 NA       NA      No       Yes      No      Female Lt high school
##  4 0        1       Yes      Yes      No      Female Lt high school
##  5 NA       NA      NA       NA       NA      Female Lt high school
##  6 45       0       NA       NA       NA      Female Lt high school
##  7 NA       NA      No       Yes      No      Male   Lt high school
##  8 20       0       NA       NA       NA      Female Lt high school
##  9 NA       NA      NA       NA       NA      Female Lt high school
## 10 NA       NA      NA       NA       NA      Female Lt high school
## # … with 2,857 more rows

Create a new variable, bachelor_graduate that is Yes if the respondent has either a Bachelor or Graduate degree. As before, if the recorded value for either was NA, the value in your new variable should also be NA.

gss_bachelor_graduate <- gss%>%
mutate(bachelor_graduate = case_when(
  degree == "Bachelor" ~ "Yes",
  degree == "Graduate" ~ "Yes"
      ))

gss_bachelor_graduate

## # A tibble: 2,867 × 8
##    emailmin emailhr snapchat instagrm twitter sex    degree         bachelor_gradua…
##    <chr>    <chr>   <chr>    <chr>    <chr>   <chr>  <chr>          <chr>           
##  1 0        12      NA       NA       NA      Male   Bachelor       Yes             
##  2 30       0       No       No       No      Male   High school    <NA>            
##  3 NA       NA      No       No       No      Male   Bachelor       Yes             
##  4 10       0       NA       NA       NA      Female High school    <NA>            
##  5 NA       NA      Yes      Yes      No      Female Graduate       Yes             
##  6 0        2       No       Yes      No      Female Junior college <NA>            
##  7 0        40      NA       NA       NA      Male   High school    <NA>            
##  8 NA       NA      Yes      Yes      No      Female High school    <NA>            
##  9 0        0       NA       NA       NA      Male   High school    <NA>            
## 10 NA       NA      No       No       No      Male   Junior college <NA>            
## # … with 2,857 more rows
…
Can we estimate the population parameter on time spent on email weekly?

Create a new variable called email that combines emailhr and emailmin to report the number of minutes the respondents spend on email weekly.

gss_email <- gss%>%
  filter(emailhr!="NA", emailmin!="NA", degree!="NA")%>% # Exclude rows containing character "NA"
  mutate(emailhr = as.double(emailhr) * 60)%>% # Obtain hours in minutes and as a double
  mutate(emailmin = as.double(emailmin))%>% # Change minutes to double
  rowwise()%>%
  mutate(email = sum(emailmin, emailhr)) # Sum hours and minutes spent on email a week and create new column email with the sum

gss_email

## # A tibble: 1,648 × 8
## # Rowwise: 
##    emailmin emailhr snapchat instagrm twitter sex    degree         email
##       <dbl>   <dbl> <chr>    <chr>    <chr>   <chr>  <chr>          <dbl>
##  1        0     720 NA       NA       NA      Male   Bachelor         720
##  2       30       0 No       No       No      Male   High school       30
##  3       10       0 NA       NA       NA      Female High school       10
##  4        0     120 No       Yes      No      Female Junior college   120
##  5        0    2400 NA       NA       NA      Male   High school     2400
##  6        0       0 NA       NA       NA      Male   High school        0
##  7        0     120 No       No       No      Female High school      120
##  8        0     600 No       No       No      Male   High school      600
##  9       30       0 No       No       No      Male   Lt high school    30
## 10        0      60 NA       NA       NA      Female Lt high school    60
## # … with 1,638 more rows
…
# calculate the improvement  of mortality rate under 5 
mortality_improvement <-mortality_rate %>%
   na.omit()%>%
   group_by(region,country) %>%
   mutate(first_rate=first(SH.DYN.MORT),last_rate=last(SH.DYN.MORT))%>%
   summarise(improvement= (first_rate-last_rate)/first_rate) 
  
mortality_improvement <-  mortality_improvement[!duplicated(mortality_improvement ), ]

top_5_country <-mortality_improvement %>%
  group_by(region)%>%
  slice_max(improvement, n=5)
top_5_country

## # A tibble: 32 × 3
## # Groups:   region [7]
##    region                country     improvement
##    <chr>                 <chr>             <dbl>
##  1 East Asia & Pacific   Korea, Rep.       0.970
##  2 East Asia & Pacific   Singapore         0.943
##  3 East Asia & Pacific   Japan             0.932
##  4 East Asia & Pacific   Thailand          0.930
##  5 East Asia & Pacific   China             0.916
##  6 Europe & Central Asia Portugal          0.969
##  7 Europe & Central Asia Turkey            0.953
##  8 Europe & Central Asia Italy             0.934
##  9 Europe & Central Asia Cyprus            0.932
## 10 Europe & Central Asia Poland            0.928
## # … with 22 more rows

least_5_country <-mortality_improvement %>%
  group_by(region)%>%
  slice_min(improvement, n=5)
least_5_country

## # A tibble: 32 × 3
## # Groups:   region [7]
##    region                country               improvement
##    <chr>                 <chr>                       <dbl>
##  1 East Asia & Pacific   Micronesia, Fed. Sts.       0.425
##  2 East Asia & Pacific   Palau                       0.475
##  3 East Asia & Pacific   Nauru                       0.543
##  4 East Asia & Pacific   Tuvalu                      0.672
##  5 East Asia & Pacific   Fiji                        0.680
##  6 Europe & Central Asia Monaco                      0.649
##  7 Europe & Central Asia Turkmenistan                0.682
##  8 Europe & Central Asia Slovak Republic             0.718
##  9 Europe & Central Asia Ukraine                     0.728
## 10 Europe & Central Asia Moldova                     0.761
## # … with 22 more rows
…
