…
The GDP data we will look at is from the United Nations’ National Accounts Main Aggregates Database, which contains estimates of total GDP and its components for all countries from 1970 to today. We will look at how GDP and its components have changed over time, and compare different countries and how much each component contributes to that country’s GDP. The file we will work with is GDP and its breakdown at constant 2010 prices in US Dollars and it has already been saved in the Data directory. Have a look at the Excel file to see how it is structured and organised

UN_GDP_data  <-  read_excel(here::here("data", "Download-GDPconstant-USD-countries.xls"), # Excel filename
                sheet="Download-GDPconstant-USD-countr", # Sheet name
                skip=2) # Number of rows to skip

First, we tidy the data and select several countries to explore.

tidy_GDP_data  <-  UN_GDP_data %>% 
  pivot_longer(cols = 4:51, values_to = "gdp_in_billion", names_to = "years") %>% 
  mutate(gdp_in_billion = gdp_in_billion/10^9)

tidy_GDP_data

## # A tibble: 176,880 × 5
##    CountryID Country     IndicatorName                 years gdp_in_billion
##        <dbl> <chr>       <chr>                         <chr>          <dbl>
##  1         4 Afghanistan Final consumption expenditure 1970            5.56
##  2         4 Afghanistan Final consumption expenditure 1971            5.33
##  3         4 Afghanistan Final consumption expenditure 1972            5.20
##  4         4 Afghanistan Final consumption expenditure 1973            5.75
##  5         4 Afghanistan Final consumption expenditure 1974            6.15
##  6         4 Afghanistan Final consumption expenditure 1975            6.32
##  7         4 Afghanistan Final consumption expenditure 1976            6.37
##  8         4 Afghanistan Final consumption expenditure 1977            6.90
##  9         4 Afghanistan Final consumption expenditure 1978            7.09
## 10         4 Afghanistan Final consumption expenditure 1979            6.92
## # … with 176,870 more rows
…
